(footprint "RJ45-RJE721881411" (version 20211014) (generator pcbnew)
  (layer "F.Cu")
  (tedit 60786376)
  (attr through_hole)
  (fp_text reference "REF**" (at 3.7 6.7) (layer "F.SilkS")
    (effects (font (size 1 1) (thickness 0.15)))
    (tstamp f217a914-5dbd-4ebd-a3cc-02f517694956)
  )
  (fp_text value "RJ45-RJE721881411" (at 3.3 11.1) (layer "F.Fab")
    (effects (font (size 1 1) (thickness 0.15)))
    (tstamp a5928a36-1735-4b67-8149-65bbb10b9a5a)
  )
  (fp_text user "${REFERENCE}" (at 3.7 6.7) (layer "F.Fab")
    (effects (font (size 1 1) (thickness 0.15)))
    (tstamp 413668e6-92f1-453b-a2e4-10676ec27f0b)
  )
  (fp_text user "RJ45_Amphenol_RJHSE538X" (at 3.56 9.5) (layer "F.Fab")
    (effects (font (size 1 1) (thickness 0.15)))
    (tstamp d12ec4d3-c526-4737-95c7-bded8c58914c)
  )
  (fp_line (start 11.9 -1.1) (end 11.925 5.588) (layer "F.SilkS") (width 0.12) (tstamp 059edb56-49c2-41ec-9bd5-cfa2b8eec01c))
  (fp_line (start -4.8 -1.1) (end -4.805 5.588) (layer "F.SilkS") (width 0.12) (tstamp 7275ab3e-c182-467d-943e-3d0a4cdf1fb7))
  (fp_line (start -4.805 5.588) (end 11.925 5.588) (layer "F.SilkS") (width 0.12) (tstamp c8ee56ea-1dda-4975-98cc-88398bca5637))
  (fp_line (start 3.556 5.5) (end 3.556 -1.3335) (layer "Eco2.User") (width 0.12) (tstamp 238561b2-7217-4013-8668-db89fd6effef))
  (fp_line (start -4.8895 -1.3335) (end -4.8895 -14.0335) (layer "Eco2.User") (width 0.12) (tstamp 84048171-c15c-4f33-b5b2-d3e332a37162))
  (fp_line (start 12.0015 -14.0335) (end 12.0015 -1.3335) (layer "Eco2.User") (width 0.12) (tstamp c3875a9d-d13f-4f5e-b5b5-289f29c60202))
  (fp_line (start -4.8895 -14.0335) (end 12.0015 -14.0335) (layer "Eco2.User") (width 0.12) (tstamp dc8bcb22-a824-412e-890e-3745fc3220cd))
  (fp_line (start 12.0015 -1.3335) (end -4.8895 -1.3335) (layer "Eco2.User") (width 0.12) (tstamp e0fe533f-8bdb-4d76-a835-a6d3348ed59f))
  (fp_line (start -6.22 8.25) (end 13.34 8.25) (layer "F.CrtYd") (width 0.05) (tstamp 2fd18939-bcf8-4357-b151-9cd96b426808))
  (fp_line (start 13.34 -8.5) (end 13.34 8.25) (layer "F.CrtYd") (width 0.05) (tstamp 72f670bf-d688-47db-8643-03c297a456b8))
  (fp_line (start -6.22 -8.5) (end -6.22 8.25) (layer "F.CrtYd") (width 0.05) (tstamp a5e307c6-6682-4dbf-9e8c-eaf01b07d9ec))
  (fp_line (start -6.22 -8.5) (end 13.34 -8.5) (layer "F.CrtYd") (width 0.05) (tstamp d7cc9c17-b878-449b-97bd-0869e1f5a11c))
  (fp_line (start -4.695 -7) (end -3.695 -8) (layer "F.Fab") (width 0.1) (tstamp 078b45e8-67bd-41e4-aae9-1b8bc3d02cfa))
  (fp_line (start -4.695 7.75) (end 11.815 7.75) (layer "F.Fab") (width 0.1) (tstamp 68f6888e-7441-48b1-8954-413cd748d4c6))
  (fp_line (start -3.695 -8) (end 11.815 -8) (layer "F.Fab") (width 0.1) (tstamp 83cf3e2a-c443-4fe2-8be5-3098b55c11c1))
  (fp_line (start 11.815 -8) (end 11.815 7.75) (layer "F.Fab") (width 0.1) (tstamp b28c4beb-a633-4a26-aff4-e22071677448))
  (fp_line (start -4.695 -7) (end -4.695 7.75) (layer "F.Fab") (width 0.1) (tstamp cbd6ca0e-2f02-4e26-b2c8-ca0c867c4e0b))
  (pad "1" thru_hole rect (at 0 0) (size 1.3 1.3) (drill 0.9) (layers *.Cu *.Mask) (tstamp a1aabecd-e63d-450f-813b-809a7dc468c7))
  (pad "2" thru_hole circle (at 1.016 1.78) (size 1.3 1.3) (drill 0.9) (layers *.Cu *.Mask) (tstamp de56ca0c-1310-4a9f-bc00-90742cfaa372))
  (pad "3" thru_hole circle (at 2.032 0) (size 1.3 1.3) (drill 0.9) (layers *.Cu *.Mask) (tstamp 1afae507-aab0-440e-92cd-b24046426381))
  (pad "4" thru_hole circle (at 3.048 1.78) (size 1.3 1.3) (drill 0.9) (layers *.Cu *.Mask) (tstamp abe833da-c14c-4984-95d1-4d6dc35f47bd))
  (pad "5" thru_hole circle (at 4.064 0) (size 1.3 1.3) (drill 0.9) (layers *.Cu *.Mask) (tstamp 57083443-4981-4a20-81e3-75129c652d8e))
  (pad "6" thru_hole circle (at 5.08 1.78) (size 1.3 1.3) (drill 0.9) (layers *.Cu *.Mask) (tstamp 24c22bf0-b8c3-4d5f-8d2a-fe2a749e6ea7))
  (pad "7" thru_hole circle (at 6.096 0) (size 1.3 1.3) (drill 0.9) (layers *.Cu *.Mask) (tstamp 3114a639-8ff9-49c8-9113-2404c2a99c0e))
  (pad "8" thru_hole circle (at 7.112 1.78) (size 1.3 1.3) (drill 0.9) (layers *.Cu *.Mask) (tstamp 806821b8-22f9-48b9-bf42-c2bc5fbd6604))
  (pad "9" thru_hole circle (at -2.9845 4.064) (size 1.3 1.3) (drill 0.9) (layers *.Cu *.Mask) (tstamp 8d7f5460-76c8-4e80-b490-69a3a3d3e386))
  (pad "10" thru_hole circle (at -0.6985 4.064) (size 1.3 1.3) (drill 0.9) (layers *.Cu *.Mask) (tstamp 81715482-5ad7-47a3-9a2e-534e805377ef))
  (pad "11" thru_hole circle (at 7.8105 4.064) (size 1.3 1.3) (drill 0.9) (layers *.Cu *.Mask) (tstamp 7f3d1129-5be6-472e-aadd-b73391446c1d))
  (pad "12" thru_hole circle (at 10.0965 4.064) (size 1.3 1.3) (drill 0.9) (layers *.Cu *.Mask) (tstamp f2d139a8-4159-4cce-b404-e14842c6f22c))
  (pad "SH" thru_hole oval (at -6.35 -6.35) (size 2.5 3.5) (drill oval 1.5 2.5) (layers *.Cu *.Mask) (tstamp 9458643b-a405-452a-87d3-248dc1c24f73))
  (pad "SH" thru_hole oval (at 13.589 -6.35) (size 2.5 3.5) (drill oval 1.5 2.5) (layers *.Cu *.Mask) (tstamp d3824d93-e645-4bfb-a3ff-7577addb2017))
  (model "./libs/shout-lib.pretty/shout-lib.3dshapes/M-RJE72-188-1XX1-REVT1.STEP"
    (offset (xyz -39.25 15.25 8))
    (scale (xyz 1 1 1))
    (rotate (xyz 90 0 0))
  )
)
